70
group.phys-higgs.mc16_13TeV.410470.PhPy8EG_A14_ttbar_hdamp258p75_nonallhad.HIGG4D2.ttbar_InvISO_mc16a_CxAOD.root.317866989 expires at 2020-12-26 18:24:54
group.phys-higgs.mc16_13TeV.410470.PhPy8EG_A14_ttbar_hdamp258p75_nonallhad.HIGG4D2.ttbar_InvISOCR_mc16e_CxAOD.root.318648869 expires at 2020-12-29 08:07:27
group.phys-higgs.mc16_13TeV.410470.PhPy8EG_A14_ttbar_hdamp258p75_nonallhad.HIGG4D2.ttbar_InvISOCR_mc16e_CxAOD.root.318646185 expires at 2020-12-29 08:07:27
group.phys-higgs.mc16_13TeV.410470.PhPy8EG_A14_ttbar_hdamp258p75_nonallhad.HIGG4D2.ttbar_InvISOCR_mc16d_CxAOD.root.318703091 expires at 2020-12-29 08:07:27
group.phys-higgs.mc16_13TeV.410470.PhPy8EG_A14_ttbar_hdamp258p75_nonallhad.HIGG4D2.ttbar_AntiTau_mc16d_CxAOD.root.318121067 expires at 2020-12-26 18:24:54
user.yanlin.mc16_13TeV.410470.PhPy8EG_A14_ttbar_hdamp258p75_nonallhad.HIGG4D2.ttbar_InvISO_mc16d_CxAOD.root.318056162 expires at 2020-12-26 18:24:54
group.phys-higgs.mc16_13TeV.410470.PhPy8EG_A14_ttbar_hdamp258p75_nonallhad.HIGG4D2.ttbar_InvISO_mc16e_CxAOD.root.318354255 expires at 2020-12-26 18:24:54
user.yanlin.mc16_13TeV.410470.PhPy8EG_A14_ttbar_hdamp258p75_nonallhad.HIGG4D2.ttbar_InvISO_mc16d_CxAOD.root.318056322 expires at 2020-12-26 18:24:54
group.phys-higgs.mc16_13TeV.410470.PhPy8EG_A14_ttbar_hdamp258p75_nonallhad.HIGG4D2.ttbar_InvISOCR_mc16a_CxAOD.root.318638294 expires at 2020-12-29 08:07:27
group.phys-higgs.mc16_13TeV.410470.PhPy8EG_A14_ttbar_hdamp258p75_nonallhad.HIGG4D2.ttbar_InvISOCR_mc16d_CxAOD.root.318703125 expires at 2020-12-29 08:07:27
group.phys-higgs.mc16_13TeV.410470.PhPy8EG_A14_ttbar_hdamp258p75_nonallhad.HIGG4D2.ttbar_InvISOCR_mc16a_CxAOD.root.318646136 expires at 2020-12-29 08:07:27
group.phys-higgs.mc16_13TeV.410470.PhPy8EG_A14_ttbar_hdamp258p75_nonallhad.HIGG4D2.ttbar_InvISOCR_mc16d_CxAOD.root.318664135 expires at 2020-12-29 08:07:27
user.yanlin.mc16_13TeV.410470.PhPy8EG_A14_ttbar_hdamp258p75_nonallhad.HIGG4D2.ttbar_InvISO_mc16d_CxAOD.root.318056268 expires at 2020-12-26 18:24:54
group.phys-higgs.mc16_13TeV.410470.PhPy8EG_A14_ttbar_hdamp258p75_nonallhad.HIGG4D2.ttbar_AntiTau_mc16d_CxAOD.root.318056265 expires at 2020-12-26 18:24:54
user.yanlin.mc16_13TeV.410470.PhPy8EG_A14_ttbar_hdamp258p75_nonallhad.HIGG4D2.ttbar_InvISO_mc16d_CxAOD.root.318120593 expires at 2020-12-26 18:24:54
user.yanlin.mc16_13TeV.410470.PhPy8EG_A14_ttbar_hdamp258p75_nonallhad.HIGG4D2.ttbar_InvISO_mc16d_CxAOD.root.318228207 expires at 2020-12-26 18:24:54
group.phys-higgs.mc16_13TeV.410470.PhPy8EG_A14_ttbar_hdamp258p75_nonallhad.HIGG4D2.ttbar_InvISO_mc16e_CxAOD.root.318367646 expires at 2020-12-26 18:24:54
group.phys-higgs.mc16_13TeV.410470.PhPy8EG_A14_ttbar_hdamp258p75_nonallhad.HIGG4D2.ttbar_InvISO_mc16e_CxAOD.root.318365746 expires at 2020-12-26 18:24:54
group.phys-higgs.mc16_13TeV.410470.PhPy8EG_A14_ttbar_hdamp258p75_nonallhad.HIGG4D2.ttbar_InvISO_mc16a_CxAOD.root.317865753 expires at 2020-12-26 18:24:54
group.phys-higgs.mc16_13TeV.410470.PhPy8EG_A14_ttbar_hdamp258p75_nonallhad.HIGG4D2.ttbar_InvISO_mc16e_CxAOD.root.318392455 expires at 2020-12-26 18:24:54
group.phys-higgs.mc16_13TeV.410470.PhPy8EG_A14_ttbar_hdamp258p75_nonallhad.HIGG4D2.ttbar_AntiTau_mc16d_CxAOD.root.318197433 expires at 2020-12-26 18:24:54
group.phys-higgs.mc16_13TeV.410470.PhPy8EG_A14_ttbar_hdamp258p75_nonallhad.HIGG4D2.ttbar_InvISOCR_mc16e_CxAOD.root.318645519 expires at 2020-12-29 08:07:27
group.phys-higgs.mc16_13TeV.410470.PhPy8EG_A14_ttbar_hdamp258p75_nonallhad.HIGG4D2.ttbar_InvISOCR_mc16d_CxAOD.root.318614026 expires at 2020-12-29 08:07:27
group.phys-higgs.mc16_13TeV.410470.PhPy8EG_A14_ttbar_hdamp258p75_nonallhad.HIGG4D2.ttbar_AntiTau_mc16d_CxAOD.root.318160783 expires at 2020-12-26 18:24:54
group.phys-higgs.mc16_13TeV.410470.PhPy8EG_A14_ttbar_hdamp258p75_nonallhad.HIGG4D2.ttbar_AntiTau_mc16d_CxAOD.root.318197221 expires at 2020-12-26 18:24:54
group.phys-higgs.mc16_13TeV.410470.PhPy8EG_A14_ttbar_hdamp258p75_nonallhad.HIGG4D2.ttbar_AntiTau_mc16d_CxAOD.root.318056209 expires at 2020-12-26 18:24:54
user.yanlin.mc16_13TeV.410470.PhPy8EG_A14_ttbar_hdamp258p75_nonallhad.HIGG4D2.ttbar_InvISO_mc16d_CxAOD.root.317910624 expires at 2020-12-26 18:24:54
user.yanlin.mc16_13TeV.410470.PhPy8EG_A14_ttbar_hdamp258p75_nonallhad.HIGG4D2.ttbar_InvISO_mc16d_CxAOD.root.318478036 expires at 2020-12-26 18:24:54
group.phys-higgs.mc16_13TeV.410470.PhPy8EG_A14_ttbar_hdamp258p75_nonallhad.HIGG4D2.ttbar_AntiTau_mc16d_CxAOD.root.318197538 expires at 2020-12-26 18:24:54
group.phys-higgs.mc16_13TeV.410470.PhPy8EG_A14_ttbar_hdamp258p75_nonallhad.HIGG4D2.ttbar_InvISO_mc16e_CxAOD.root.318402883 expires at 2020-12-26 18:24:54
group.phys-higgs.mc16_13TeV.410470.PhPy8EG_A14_ttbar_hdamp258p75_nonallhad.HIGG4D2.ttbar_AntiTau_mc16d_CxAOD.root.318121007 expires at 2020-12-26 18:24:54
group.phys-higgs.mc16_13TeV.410470.PhPy8EG_A14_ttbar_hdamp258p75_nonallhad.HIGG4D2.ttbar_InvISO_mc16a_CxAOD.root.317860049 expires at 2020-12-26 18:24:54
user.yanlin.mc16_13TeV.410470.PhPy8EG_A14_ttbar_hdamp258p75_nonallhad.HIGG4D2.ttbar_InvISO_mc16d_CxAOD.root.318055958 expires at 2020-12-26 18:24:54
group.phys-higgs.mc16_13TeV.410470.PhPy8EG_A14_ttbar_hdamp258p75_nonallhad.HIGG4D2.ttbar_AntiTau_mc16d_CxAOD.root.318281648 expires at 2020-12-26 18:24:54
user.yanlin.mc16_13TeV.410470.PhPy8EG_A14_ttbar_hdamp258p75_nonallhad.HIGG4D2.ttbar_InvISO_mc16d_CxAOD.root.318056017 expires at 2020-12-26 18:24:54
group.phys-higgs.mc16_13TeV.410470.PhPy8EG_A14_ttbar_hdamp258p75_nonallhad.HIGG4D2.ttbar_InvISO_mc16e_CxAOD.root.318394303 expires at 2020-12-26 18:24:54
group.phys-higgs.mc16_13TeV.410470.PhPy8EG_A14_ttbar_hdamp258p75_nonallhad.HIGG4D2.ttbar_AntiTau_mc16d_CxAOD.root.318121102 expires at 2020-12-26 18:24:54
group.phys-higgs.mc16_13TeV.410470.PhPy8EG_A14_ttbar_hdamp258p75_nonallhad.HIGG4D2.ttbar_AntiTau_mc16d_CxAOD.root.318056300 expires at 2020-12-26 18:24:54
group.phys-higgs.mc16_13TeV.410470.PhPy8EG_A14_ttbar_hdamp258p75_nonallhad.HIGG4D2.ttbar_AntiTau_mc16d_CxAOD.root.318496222 expires at 2020-12-26 18:24:54
group.phys-higgs.mc16_13TeV.410470.PhPy8EG_A14_ttbar_hdamp258p75_nonallhad.HIGG4D2.ttbar_AntiTau_mc16d_CxAOD.root.318197488 expires at 2020-12-26 18:24:54
group.phys-higgs.mc16_13TeV.410470.PhPy8EG_A14_ttbar_hdamp258p75_nonallhad.HIGG4D2.ttbar_AntiTau_mc16d_CxAOD.root.318197547 expires at 2020-12-26 18:24:54
user.yanlin.mc16_13TeV.410470.PhPy8EG_A14_ttbar_hdamp258p75_nonallhad.HIGG4D2.ttbar_InvISO_mc16d_CxAOD.root.318056120 expires at 2020-12-26 18:24:54
group.phys-higgs.mc16_13TeV.410470.PhPy8EG_A14_ttbar_hdamp258p75_nonallhad.HIGG4D2.ttbar_AntiTau_mc16d_CxAOD.root.317243357 expires at 2020-12-26 18:24:54
user.yanlin.mc16_13TeV.410470.PhPy8EG_A14_ttbar_hdamp258p75_nonallhad.HIGG4D2.ttbar_InvISO_mc16d_CxAOD.root.318239012 expires at 2020-12-26 18:24:54
group.phys-higgs.mc16_13TeV.410470.PhPy8EG_A14_ttbar_hdamp258p75_nonallhad.HIGG4D2.ttbar_AntiTau_mc16d_CxAOD.root.318208320 expires at 2020-12-26 18:24:54
user.yanlin.mc16_13TeV.410470.PhPy8EG_A14_ttbar_hdamp258p75_nonallhad.HIGG4D2.ttbar_InvISO_mc16d_CxAOD.root.318120501 expires at 2020-12-26 18:24:54
group.phys-higgs.mc16_13TeV.410470.PhPy8EG_A14_ttbar_hdamp258p75_nonallhad.HIGG4D2.ttbar_AntiTau_mc16d_CxAOD.root.318161107 expires at 2020-12-26 18:24:54
group.phys-higgs.mc16_13TeV.410470.PhPy8EG_A14_ttbar_hdamp258p75_nonallhad.HIGG4D2.ttbar_AntiTau_mc16d_CxAOD.root.318161158 expires at 2020-12-26 18:24:54
user.yanlin.mc16_13TeV.410470.PhPy8EG_A14_ttbar_hdamp258p75_nonallhad.HIGG4D2.ttbar_InvISO_mc16d_CxAOD.root.318160864 expires at 2020-12-26 18:24:54
group.phys-higgs.mc16_13TeV.410470.PhPy8EG_A14_ttbar_hdamp258p75_nonallhad.HIGG4D2.ttbar_InvISO_mc16a_CxAOD.root.317854368 expires at 2020-12-26 18:24:54
user.yanlin.mc16_13TeV.410470.PhPy8EG_A14_ttbar_hdamp258p75_nonallhad.HIGG4D2.ttbar_InvISO_mc16d_CxAOD.root.318056509 expires at 2020-12-26 18:24:54
group.phys-higgs.mc16_13TeV.410470.PhPy8EG_A14_ttbar_hdamp258p75_nonallhad.HIGG4D2.ttbar_InvISOCR_mc16d_CxAOD.root.318703050 expires at 2020-12-29 08:07:27
group.phys-higgs.mc16_13TeV.410470.PhPy8EG_A14_ttbar_hdamp258p75_nonallhad.HIGG4D2.ttbar_InvISOCR_mc16d_CxAOD.root.318772031 expires at 2020-12-29 08:07:27
group.phys-higgs.mc16_13TeV.410470.PhPy8EG_A14_ttbar_hdamp258p75_nonallhad.HIGG4D2.ttbar_InvISOCR_mc16e_CxAOD.root.318639310 expires at 2020-12-29 08:07:27
group.phys-higgs.mc16_13TeV.410470.PhPy8EG_A14_ttbar_hdamp258p75_nonallhad.HIGG4D2.ttbar_InvISOCR_mc16d_CxAOD.root.318849225 expires at 2020-12-29 08:07:27
group.phys-higgs.mc16_13TeV.410470.PhPy8EG_A14_ttbar_hdamp258p75_nonallhad.HIGG4D2.ttbar_InvISOCR_mc16e_CxAOD.root.318647140 expires at 2020-12-29 08:07:27
group.phys-higgs.mc16_13TeV.410470.PhPy8EG_A14_ttbar_hdamp258p75_nonallhad.HIGG4D2.ttbar_InvISOCR_mc16a_CxAOD.root.318642218 expires at 2020-12-29 08:07:27
group.phys-higgs.mc16_13TeV.410470.PhPy8EG_A14_ttbar_hdamp258p75_nonallhad.HIGG4D2.ttbar_InvISOCR_mc16e_CxAOD.root.318644758 expires at 2020-12-29 08:07:27
group.phys-higgs.mc16_13TeV.410470.PhPy8EG_A14_ttbar_hdamp258p75_nonallhad.HIGG4D2.ttbar_InvISOCR_mc16d_CxAOD.root.318628282 expires at 2020-12-29 08:07:27
group.phys-higgs.mc16_13TeV.410470.PhPy8EG_A14_ttbar_hdamp258p75_nonallhad.HIGG4D2.ttbar_InvISOCR_mc16d_CxAOD.root.318703193 expires at 2020-12-29 08:07:27
group.phys-higgs.mc16_13TeV.410470.PhPy8EG_A14_ttbar_hdamp258p75_nonallhad.HIGG4D2.ttbar_InvISOCR_mc16d_CxAOD.root.318703013 expires at 2020-12-29 08:07:27
group.phys-higgs.mc16_13TeV.410470.PhPy8EG_A14_ttbar_hdamp258p75_nonallhad.HIGG4D2.ttbar_AntiTau_mc16a_CxAOD.root.317247479 expires at 2020-12-22 14:46:34
group.phys-higgs.mc16_13TeV.410470.PhPy8EG_A14_ttbar_hdamp258p75_nonallhad.HIGG4D2.ttbar_AntiTau_mc16e_CxAOD.root.317241134 expires at 2020-12-22 14:46:34
group.phys-higgs.mc16_13TeV.410470.PhPy8EG_A14_ttbar_hdamp258p75_nonallhad.HIGG4D2.ttbar_AntiTau_mc16e_CxAOD.root.317258280 expires at 2020-12-22 14:46:34
group.phys-higgs.mc16_13TeV.410470.PhPy8EG_A14_ttbar_hdamp258p75_nonallhad.HIGG4D2.ttbar_AntiTau_mc16a_CxAOD.root.317250243 expires at 2020-12-22 14:46:34
group.phys-higgs.mc16_13TeV.410470.PhPy8EG_A14_ttbar_hdamp258p75_nonallhad.HIGG4D2.ttbar_AntiTau_mc16a_CxAOD.root.317248509 expires at 2020-12-22 14:46:34
group.phys-higgs.mc16_13TeV.410470.PhPy8EG_A14_ttbar_hdamp258p75_nonallhad.HIGG4D2.ttbar_AntiTau_mc16a_CxAOD.root.317239173 expires at 2020-12-22 14:46:34
group.phys-higgs.mc16_13TeV.410470.PhPy8EG_A14_ttbar_hdamp258p75_nonallhad.HIGG4D2.ttbar_AntiTau_mc16e_CxAOD.root.317269949 expires at 2020-12-22 14:46:34
group.phys-higgs.mc16_13TeV.410470.PhPy8EG_A14_ttbar_hdamp258p75_nonallhad.HIGG4D2.ttbar_AntiTau_mc16e_CxAOD.root.317251950 expires at 2020-12-22 14:46:34
group.phys-higgs.mc16_13TeV.410470.PhPy8EG_A14_ttbar_hdamp258p75_nonallhad.HIGG4D2.ttbar_AntiTau_mc16e_CxAOD.root.317252806 expires at 2020-12-22 14:46:34
